Read character columns with clean names — read_chr • jrrosell
…
    Details

    The read_chr function works like readr::read_delim, except that
column sreturned would be characters and with clean names. It requires readr and janitor packages installed.

    See also

    https://github.com/jrosell/jrrosell/blob/main/R/read.R

    Examples

es <- readr::locale("es", tz="Europe/Madrid", decimal_mark = ",", grouping_mark = ".")
read_chr(readr::readr_example("mtcars.csv"), delim = ",", locale = es)
#> # A tibble: 32 × 11
#>    mpg   cyl   disp  hp    drat  wt    qsec  vs    am    gear  carb 
#>    <chr> <chr> <chr> <chr> <chr> <chr> <chr> <chr> <chr> <chr> <chr>
#>  1 21    6     160   110   3.9   2.62  16.46 0     1     4     4    
#>  2 21    6     160   110   3.9   2.875 17.02 0     1     4     4    
#>  3 22.8  4     108   93    3.85  2.32  18.61 1     1     4     1    
#>  4 21.4  6     258   110   3.08  3.215 19.44 1     0     3     1    
#>  5 18.7  8     360   175   3.15  3.44  17.02 0     0     3     2    
#>  6 18.1  6     225   105   2.76  3.46  20.22 1     0     3     1    
#>  7 14.3  8     360   245   3.21  3.57  15.84 0     0     3     4    
#>  8 24.4  4     146.7 62    3.69  3.19  20    1     0     4     2    
#>  9 22.8  4     140.8 95    3.92  3.15  22.9  1     0     4     2    
#> 10 19.2  6     167.6 123   3.92  3.44  18.3  1     0     4     4    
#> # ℹ 22 more rows
…
